<?xml version="1.0" encoding="UTF-8" standalone="no"?>
<svg
   xmlns:dc="http://purl.org/dc/elements/1.1/"
   xmlns:cc="http://creativecommons.org/ns#"
   xmlns:rdf="http://www.w3.org/1999/02/22-rdf-syntax-ns#"
   xmlns:svg="http://www.w3.org/2000/svg"
   xmlns="http://www.w3.org/2000/svg"
   xmlns:sodipodi="http://sodipodi.sourceforge.net/DTD/sodipodi-0.dtd"
   xmlns:inkscape="http://www.inkscape.org/namespaces/inkscape"
   sodipodi:docname="salaman.svg"
   inkscape:version="1.0 (4035a4fb49, 2020-05-01)"
   id="svg91176"
   version="1.1"
   viewBox="0 0 47.600185 47.601578"
   height="47.601578mm"
   width="47.600185mm">
  <defs
     id="defs91170" />
  <sodipodi:namedview
     inkscape:window-maximized="0"
     inkscape:window-y="0"
     inkscape:window-x="76"
     inkscape:window-height="729"
     inkscape:window-width="1274"
     showgrid="false"
     inkscape:document-rotation="0"
     inkscape:current-layer="layer1"
     inkscape:document-units="mm"
     inkscape:cy="-59.288346"
     inkscape:cx="-76.626662"
     inkscape:zoom="0.49497475"
     inkscape:pageshadow="2"
     inkscape:pageopacity="0.0"
     borderopacity="1.0"
     bordercolor="#666666"
     pagecolor="#ffffff"
     id="base" />
  <metadata
     id="metadata91173">
    <rdf:RDF>
      <cc:Work
         rdf:about="">
        <dc:format>image/svg+xml</dc:format>
        <dc:type
           rdf:resource="http://purl.org/dc/dcmitype/StillImage" />
        <dc:title></dc:title>
      </cc:Work>
    </rdf:RDF>
  </metadata>
  <g
     transform="translate(-146.28919,-171.99088)"
     id="layer1"
     inkscape:groupmode="layer"
     inkscape:label="Layer 1">
    <path
       style="fill:#d9ebeb;fill-opacity:1;fill-rule:nonzero;stroke:none;stroke-width:0.352777"
       d="m 193.53661,195.79098 c 0,12.95081 -10.4979,23.4487 -23.44732,23.4487 -12.94943,0 -23.44732,-10.49789 -23.44732,-23.4487 0,-12.94942 10.49789,-23.44731 23.44732,-23.44731 12.94942,0 23.44732,10.49789 23.44732,23.44731"
       id="path89038" />
    <path
       style="fill:#195773;fill-opacity:1;fill-rule:nonzero;stroke:none;stroke-width:0.352777"
       d="m 186.55822,179.10157 -13.75833,12.7 6.70278,6.70277 12.34722,-11.99444 c 0,0 -1.76389,-3.88056 -5.29167,-7.40833"
       id="path89076" />
    <path
       style="fill:#47b3b0;fill-opacity:1;fill-rule:nonzero;stroke:none;stroke-width:0.352777"
       d="m 163.98044,193.21268 -3.175,7.76111 -14.16347,-5.18281 c 0,0 -0.32935,-5.35781 1.97748,-9.43542 z m 0,0"
       id="path89078" />
    <path
       style="fill:#000000;fill-opacity:1;fill-rule:nonzero;stroke:none;stroke-width:0.352777"
       d="m 174.13107,196.61643 -3.11298,-1.91272 c -0.0372,-0.0234 -0.0813,-0.0386 -0.12541,-0.0468 l -0.97427,-0.17088 c -0.18052,-0.0331 -0.35829,0.0923 -0.38999,0.27148 -0.0317,0.18052 0.0923,0.35829 0.27286,0.38998 l 0.91915,0.16261 3.05924,1.87827 c 0.14883,0.0923 0.35416,0.0482 0.45338,-0.0965 0.10611,-0.15434 0.0579,-0.37758 -0.10198,-0.47542"
       id="path89080" />
    <path
       style="fill:#000000;fill-opacity:1;fill-rule:nonzero;stroke:none;stroke-width:0.352777"
       d="m 177.06629,198.42028 -1.66467,-1.02388 c -0.15434,-0.0951 -0.36793,-0.0441 -0.46164,0.11024 -0.0965,0.15434 -0.0441,0.36794 0.10887,0.46302 l 2.48184,1.52412 c 0.34727,0.21359 0.45613,0.66834 0.24254,1.01698 -0.2136,0.34589 -0.66973,0.45614 -1.017,0.24254 l -2.66099,-1.63573 c -0.15709,-0.0965 -0.3638,-0.0468 -0.46164,0.11024 -0.0965,0.15848 -0.0468,0.36518 0.11024,0.46302 l 2.05052,1.25953 c 0.34314,0.21084 0.45476,0.67247 0.24254,1.01699 -0.21084,0.34176 -0.67248,0.45338 -1.01699,0.24253 l -1.8576,-1.14239 c -0.15847,-0.0965 -0.36518,-0.0469 -0.46164,0.11025 -0.0978,0.15847 -0.0482,0.36517 0.11024,0.46302 l 1.24713,0.76619 c 0.34313,0.21083 0.45475,0.67248 0.24253,1.01699 -0.21084,0.34174 -0.67248,0.45336 -1.01561,0.24253 0,0 -1.09692,-0.67386 -1.10795,-0.67937 -0.15296,-0.073 -0.34037,-0.0207 -0.43132,0.12816 -0.0978,0.15709 -0.0482,0.36517 0.11024,0.46164 l 0.46578,0.28663 c 0.34727,0.2136 0.45613,0.66973 0.24253,1.017 -0.20946,0.34175 -0.67248,0.45337 -1.01561,0.24253 l -0.18742,-0.11576 0.1571,-0.25631 c 0.20258,-0.32659 0.26459,-0.73036 0.17226,-1.10519 -0.091,-0.3707 -0.31971,-0.67937 -0.64217,-0.87092 -0.25218,-0.14883 -0.5333,-0.20808 -0.80753,-0.19016 0.051,-0.22187 0.0524,-0.45476 -0.004,-0.678 -0.0909,-0.37069 -0.3197,-0.67937 -0.64216,-0.87092 -0.25218,-0.14883 -0.5333,-0.20808 -0.80753,-0.19017 0.13918,-0.59531 -0.11714,-1.2361 -0.64493,-1.54892 -0.25218,-0.14882 -0.53467,-0.20808 -0.8089,-0.19016 0.13918,-0.59532 -0.11576,-1.23473 -0.64492,-1.54754 -0.65733,-0.38861 -1.51722,-0.17639 -1.91823,0.47267 l -1.38493,2.24481 -1.41249,-0.79236 2.09324,-5.34955 1.13826,0.2012 c -0.32384,0.40239 -0.41479,0.97014 -0.18604,1.47174 0.23703,0.51815 0.74966,0.82545 1.28571,0.82545 0.19568,0 0.39412,-0.0414 0.58291,-0.12678 l 1.96784,-0.89573 c 0.16674,-0.0758 0.24254,-0.27836 0.16674,-0.4451 -0.0758,-0.16675 -0.27836,-0.24254 -0.4451,-0.16675 l -1.96784,0.89711 c -0.37069,0.16812 -0.81029,0.004 -0.97841,-0.36656 -0.1695,-0.3707 -0.005,-0.81029 0.36518,-0.97979 l 3.14882,-1.43316 3.74551,0.32246 c 0.01,0 0.0193,0.001 0.0289,0.001 0.0813,0 0.15985,-0.0303 0.22186,-0.0841 l 0.31833,-0.28112 4.48689,4.42626 z m -6.11986,5.97793 -0.74001,1.20026 c -0.21084,0.34177 -0.67386,0.45201 -1.01699,0.23979 -0.34176,-0.21085 -0.452,-0.67386 -0.24116,-1.01699 l 0.75241,-1.21956 c 0.21084,-0.34038 0.66146,-0.452 1.00597,-0.24805 0.35553,0.21084 0.45337,0.69866 0.23978,1.04455 m -2.56867,0.0703 c -0.10473,0.16812 -0.26734,0.28663 -0.45888,0.33211 -0.19293,0.0455 -0.39137,0.0124 -0.55949,-0.091 -0.34175,-0.21084 -0.452,-0.67386 -0.23977,-1.01699 l 1.12861,-1.82866 c 0.20946,-0.34038 0.66008,-0.452 1.00459,-0.24942 0.35553,0.21083 0.45475,0.69866 0.23978,1.04593 z m -1.83003,-1.12861 c -0.21497,0.34727 -0.67111,0.45475 -1.01699,0.24115 -0.34314,-0.21221 -0.45338,-0.67385 -0.24116,-1.01699 l 1.50482,-2.4405 c 0.21084,-0.34038 0.66145,-0.45062 1.00459,-0.24667 0.35691,0.20946 0.45475,0.69728 0.24115,1.04455 z m -1.83004,-1.12862 c -0.21359,0.34589 -0.66972,0.45476 -1.01699,0.24116 -0.34726,-0.21498 -0.45475,-0.6711 -0.24115,-1.01699 l 1.88239,-3.0496 c 0.20947,-0.34037 0.66009,-0.452 1.00459,-0.24942 0.35554,0.21084 0.45338,0.70004 0.23978,1.04593 z m 26.77942,-15.9811 -12.10882,11.75053 -6.23976,-6.15708 11.29302,-10.6357 2.1277,-2.00366 -0.34176,-0.60083 -1.78594,1.68121 -12.00822,11.30818 c -0.13643,0.12816 -0.13918,0.3514 -0.005,0.48369 l 0.55121,0.54433 -0.17639,0.15572 -3.689,-0.31695 c -0.0565,-0.006 -0.11576,0.004 -0.16812,0.0289 l -2.92282,1.33119 c -0.008,-0.003 -0.0165,-0.004 -0.0262,-0.005 l -1.68121,-0.29767 0.13505,-0.34727 c 0.0675,-0.17225 -0.0165,-0.36656 -0.18741,-0.43407 l -15.54014,-6.59391 -0.26871,0.61598 15.24936,6.47678 -2.98482,7.62881 -14.02432,-5.29992 v 0.71658 l 14.10698,5.32611 c 0.16812,0.0593 0.35967,-0.0275 0.42444,-0.19431 l 0.49885,-1.27467 1.30775,0.73174 -0.14469,0.23426 c -0.4079,0.66146 -0.20257,1.53238 0.46026,1.94166 0.35003,0.21497 0.78411,0.26734 1.17547,0.14056 0.0634,0.4079 0.30317,0.7717 0.65457,0.98805 0.35002,0.21635 0.7841,0.26734 1.17546,0.14056 0.0634,0.4079 0.3018,0.7717 0.65319,0.98806 0.35141,0.21635 0.78411,0.26733 1.17685,0.14193 0.062,0.40652 0.30179,0.77031 0.65319,0.98668 0.51125,0.31557 1.18649,0.26871 1.64675,-0.11714 0.11576,-0.0978 0.21498,-0.21359 0.29491,-0.34175 l 0.22875,-0.37207 0.18879,0.11575 c 0.51125,0.31419 1.18787,0.26597 1.64676,-0.11988 0.11575,-0.0978 0.21497,-0.2136 0.2949,-0.34314 0.15709,-0.25631 0.22186,-0.54295 0.20532,-0.82268 0.10611,0.0248 0.21636,0.0386 0.32522,0.0386 0.48783,0 0.95085,-0.25769 1.20579,-0.67248 0.15296,-0.2508 0.22461,-0.53606 0.20532,-0.82269 0.10749,0.0248 0.21636,0.0386 0.32522,0.0386 0.4892,0 0.94947,-0.2577 1.20578,-0.67249 0.15434,-0.2508 0.22324,-0.53605 0.20533,-0.82406 0.10749,0.0262 0.21773,0.0386 0.3266,0.0386 0.47404,0 0.93706,-0.2384 1.20302,-0.6711 0.4079,-0.66284 0.19982,-1.53376 -0.46302,-1.94028 l -0.23013,-0.14194 0.77308,-0.80753 0.72209,0.71382 c 0.12678,0.12403 0.33487,0.12678 0.4644,0.006 l 12.19702,-11.82907 z m 0,0"
       id="path89082" />
    <path
       style="fill:#d9ebeb;fill-opacity:1;fill-rule:nonzero;stroke:none;stroke-width:0.352777"
       d="m 181.34097,202.46345 -21.78679,-15.97698 c -0.30041,-0.22186 -0.72484,-0.15572 -0.94671,0.14608 -0.22186,0.30178 -0.15709,0.72622 0.14607,0.94809 l 21.78679,15.97558 c 0.30041,0.22188 0.72485,0.15711 0.94671,-0.14469 0.22187,-0.30317 0.15572,-0.72622 -0.14607,-0.94808"
       id="path89084" />
    <path
       style="fill:none;stroke:#d9ebeb;stroke-width:1.76389;stroke-linecap:round;stroke-linejoin:round;stroke-miterlimit:10;stroke-opacity:1"
       d="m 181.34097,202.46345 -21.78678,-15.97698 c -0.30042,-0.22186 -0.72485,-0.15572 -0.94672,0.14607 -0.22186,0.30179 -0.15709,0.72623 0.14608,0.94809 l 21.78678,15.97559 c 0.30041,0.22188 0.72485,0.15711 0.94671,-0.14469 0.22187,-0.30317 0.15572,-0.72622 -0.14607,-0.94808 z m 0,0"
       id="path89086" />
    <path
       style="fill:#e8592b;fill-opacity:1;fill-rule:nonzero;stroke:none;stroke-width:0.352777"
       d="m 181.34097,202.46345 -21.78679,-15.97698 c -0.30041,-0.22186 -0.72484,-0.15572 -0.94671,0.14608 -0.22186,0.30178 -0.15709,0.72622 0.14607,0.94809 l 21.78679,15.97558 c 0.30041,0.22188 0.72485,0.15711 0.94671,-0.14469 0.22187,-0.30317 0.15572,-0.72622 -0.14607,-0.94808"
       id="path89088" />
    <path
       style="fill:none;stroke:#000000;stroke-width:0.705556;stroke-linecap:butt;stroke-linejoin:miter;stroke-miterlimit:10;stroke-opacity:1"
       d="m 193.5366,195.79099 c 0,12.9508 -10.49789,23.44869 -23.44732,23.44869 -12.94942,0 -23.44731,-10.49789 -23.44731,-23.44869 0,-12.94943 10.49789,-23.44733 23.44731,-23.44733 12.94943,0 23.44732,10.4979 23.44732,23.44733 z m 0,0"
       id="path89090" />
  </g>
</svg>
