<?xml version="1.0" encoding="UTF-8" standalone="no"?>
<svg
   xmlns:dc="http://purl.org/dc/elements/1.1/"
   xmlns:cc="http://creativecommons.org/ns#"
   xmlns:rdf="http://www.w3.org/1999/02/22-rdf-syntax-ns#"
   xmlns:svg="http://www.w3.org/2000/svg"
   xmlns="http://www.w3.org/2000/svg"
   xmlns:sodipodi="http://sodipodi.sourceforge.net/DTD/sodipodi-0.dtd"
   xmlns:inkscape="http://www.inkscape.org/namespaces/inkscape"
   sodipodi:docname="path1.svg"
   inkscape:version="1.0 (4035a4fb49, 2020-05-01)"
   id="svg1685"
   version="1.1"
   viewBox="0 0 84.590805 8.9535217"
   height="8.9535217mm"
   width="84.590805mm">
  <defs
     id="defs1679">
    <clipPath
       clipPathUnits="userSpaceOnUse"
       id="clipPath1624">
      <rect
         style="opacity:1;fill:#000000;fill-opacity:1;stroke:none;stroke-width:1"
         id="rect1626"
         width="84.590805"
         height="29.66691"
         x="78.309975"
         y="-331.68149" />
    </clipPath>
    <clipPath
       clipPathUnits="userSpaceOnUse"
       id="clipPath1620">
      <rect
         style="opacity:1;fill:#000000;fill-opacity:1;stroke:none;stroke-width:1"
         id="rect1622"
         width="84.590805"
         height="29.66691"
         x="78.309975"
         y="-331.68149" />
    </clipPath>
    <clipPath
       clipPathUnits="userSpaceOnUse"
       id="clipPath1616">
      <rect
         style="opacity:1;fill:#000000;fill-opacity:1;stroke:none;stroke-width:1"
         id="rect1618"
         width="84.590805"
         height="29.66691"
         x="78.309975"
         y="-331.68149" />
    </clipPath>
    <clipPath
       clipPathUnits="userSpaceOnUse"
       id="clipPath2278">
      <rect
         style="opacity:1;fill:#000000;fill-opacity:1;stroke:none;stroke-width:1"
         id="rect2280"
         width="84.590805"
         height="29.66691"
         x="78.309975"
         y="-331.68149" />
    </clipPath>
    <clipPath
       clipPathUnits="userSpaceOnUse"
       id="clipPath2274">
      <rect
         style="opacity:1;fill:#000000;fill-opacity:1;stroke:none;stroke-width:1"
         id="rect2276"
         width="84.590805"
         height="29.66691"
         x="78.309975"
         y="-331.68149" />
    </clipPath>
    <clipPath
       clipPathUnits="userSpaceOnUse"
       id="clipPath2270">
      <rect
         style="opacity:1;fill:#000000;fill-opacity:1;stroke:none;stroke-width:1"
         id="rect2272"
         width="84.590805"
         height="29.66691"
         x="78.309975"
         y="-331.68149" />
    </clipPath>
  </defs>
  <sodipodi:namedview
     inkscape:window-maximized="1"
     inkscape:window-y="-8"
     inkscape:window-x="-8"
     inkscape:window-height="715"
     inkscape:window-width="1366"
     showgrid="false"
     inkscape:document-rotation="0"
     inkscape:current-layer="layer1"
     inkscape:document-units="mm"
     inkscape:cy="69.004829"
     inkscape:cx="67.255406"
     inkscape:zoom="1.4"
     inkscape:pageshadow="2"
     inkscape:pageopacity="0.0"
     borderopacity="1.0"
     bordercolor="#666666"
     pagecolor="#ffffff"
     id="base" />
  <metadata
     id="metadata1682">
    <rdf:RDF>
      <cc:Work
         rdf:about="">
        <dc:format>image/svg+xml</dc:format>
        <dc:type
           rdf:resource="http://purl.org/dc/dcmitype/StillImage" />
        <dc:title />
      </cc:Work>
    </rdf:RDF>
  </metadata>
  <g
     transform="translate(-138.05616,-154.47898)"
     id="layer1"
     inkscape:groupmode="layer"
     inkscape:label="Layer 1">
    <path
       transform="translate(59.746186,465.44708)"
       style="opacity:0.254839;fill:#cfcfcf;fill-opacity:1;stroke:none;stroke-width:0.264583px;stroke-linecap:butt;stroke-linejoin:miter;stroke-opacity:1"
       d="m 73.900024,-307.22633 28.063296,-3.74177 66.68375,3.47451 1.46998,15.90255 -94.880679,-4.27633 z"
       id="path1610"
       clip-path="url(#clipPath2278)" />
    <path
       sodipodi:nodetypes="cccccc"
       transform="translate(59.746186,465.44708)"
       style="fill:#cfcfcf;fill-opacity:1;stroke:none;stroke-width:0.264583px;stroke-linecap:butt;stroke-linejoin:miter;stroke-opacity:1"
       d="m 78.176336,-304.15272 23.786984,-6.81538 60.93746,8.95353 2.93996,3.87541 -87.530765,-3.87543 z"
       id="path1606"
       clip-path="url(#clipPath2270)" />
    <path
       transform="translate(59.746186,465.44708)"
       style="opacity:0.396774;fill:#cfcfcf;fill-opacity:1;stroke:none;stroke-width:0.264583px;stroke-linecap:butt;stroke-linejoin:miter;stroke-opacity:1"
       d="m 78.176336,-304.15272 -4.677217,-0.4009 28.464201,-6.41448 64.81286,7.08266 -1.20271,9.22078 z"
       id="path1608"
       clip-path="url(#clipPath2274)" />
  </g>
</svg>
