<?xml version="1.0" encoding="UTF-8" standalone="no"?>
<svg
   xmlns:dc="http://purl.org/dc/elements/1.1/"
   xmlns:cc="http://creativecommons.org/ns#"
   xmlns:rdf="http://www.w3.org/1999/02/22-rdf-syntax-ns#"
   xmlns:svg="http://www.w3.org/2000/svg"
   xmlns="http://www.w3.org/2000/svg"
   xmlns:sodipodi="http://sodipodi.sourceforge.net/DTD/sodipodi-0.dtd"
   xmlns:inkscape="http://www.inkscape.org/namespaces/inkscape"
   width="84.396423mm"
   height="8.6862602mm"
   viewBox="0 0 84.396423 8.6862602"
   version="1.1"
   id="svg916"
   inkscape:version="1.0 (4035a4fb49, 2020-05-01)"
   sodipodi:docname="path1.svg">
  <defs
     id="defs910">
    <clipPath
       id="clipPath889"
       clipPathUnits="userSpaceOnUse">
      <rect
         y="49.979401"
         x="-31.865875"
         height="17.46002"
         width="84.396423"
         id="rect891"
         style="opacity:1;fill:#ff0000;fill-opacity:1;stroke:none;stroke-width:1" />
    </clipPath>
    <clipPath
       id="clipPath885"
       clipPathUnits="userSpaceOnUse">
      <rect
         y="49.979401"
         x="-31.865875"
         height="17.46002"
         width="84.396423"
         id="rect887"
         style="opacity:1;fill:#ff0000;fill-opacity:1;stroke:none;stroke-width:1" />
    </clipPath>
    <clipPath
       id="clipPath881"
       clipPathUnits="userSpaceOnUse">
      <rect
         y="49.979401"
         x="-31.865875"
         height="17.46002"
         width="84.396423"
         id="rect883"
         style="opacity:1;fill:#ff0000;fill-opacity:1;stroke:none;stroke-width:1" />
    </clipPath>
  </defs>
  <sodipodi:namedview
     id="base"
     pagecolor="#ffffff"
     bordercolor="#666666"
     borderopacity="1.0"
     inkscape:pageopacity="0.0"
     inkscape:pageshadow="2"
     inkscape:zoom="2.8"
     inkscape:cx="111.88949"
     inkscape:cy="12.483265"
     inkscape:document-units="mm"
     inkscape:current-layer="layer1"
     inkscape:document-rotation="0"
     showgrid="false"
     inkscape:window-width="1366"
     inkscape:window-height="715"
     inkscape:window-x="1432"
     inkscape:window-y="-8"
     inkscape:window-maximized="1" />
  <metadata
     id="metadata913">
    <rdf:RDF>
      <cc:Work
         rdf:about="">
        <dc:format>image/svg+xml</dc:format>
        <dc:type
           rdf:resource="http://purl.org/dc/dcmitype/StillImage" />
        <dc:title />
      </cc:Work>
    </rdf:RDF>
  </metadata>
  <g
     inkscape:label="Layer 1"
     inkscape:groupmode="layer"
     id="layer1"
     transform="translate(18.763688,-31.186632)">
    <path
       sodipodi:nodetypes="cccccc"
       clip-path="url(#clipPath889)"
       id="path853"
       d="m -31.865876,67.43942 0.200453,-3.207234 8.95353,-3.741774 75.486815,2.300882 0.0837,3.311779 z"
       style="opacity:0.13871;fill:#1f467a;fill-opacity:1;stroke:none;stroke-width:0.264583px;stroke-linecap:butt;stroke-linejoin:miter;stroke-opacity:1"
       transform="translate(13.102187,-27.566528)" />
    <path
       sodipodi:nodetypes="cccccc"
       clip-path="url(#clipPath885)"
       id="path851"
       d="m -31.865876,67.43942 0.133635,-1.737252 9.020348,-5.211756 75.603865,3.975633 -0.0334,1.637028 z"
       style="opacity:0.316129;fill:#1f467a;fill-opacity:1;stroke:none;stroke-width:0.264583px;stroke-linecap:butt;stroke-linejoin:miter;stroke-opacity:1"
       transform="translate(13.102187,-27.566528)" />
    <path
       clip-path="url(#clipPath881)"
       sodipodi:nodetypes="ccccc"
       id="path847"
       d="m -31.865876,67.43942 9.153983,-6.949008 75.570515,5.612661 -0.130386,2.062444 z"
       style="fill:#1f467a;fill-opacity:1;stroke:none;stroke-width:0.264583px;stroke-linecap:butt;stroke-linejoin:miter;stroke-opacity:1"
       transform="translate(13.102187,-27.566528)" />
  </g>
</svg>
