<?xml version="1.0" standalone="no"?>
<!DOCTYPE svg PUBLIC "-//W3C//DTD SVG 1.1//EN" "http://www.w3.org/Graphics/SVG/1.1/DTD/svg11.dtd" >
<svg>
<metadata>
Created by FontForge 20090622 at Sat Nov 12 16:49:35 2016
 By ffonts
Created by Manuel Ramos, with FontForge 2.0, all rights reserved 2012.
</metadata>
<defs>
<font id="Artesana" horiz-adv-x="550" >
  <font-face 
    font-family="Artesana"
    font-weight="500"
    font-stretch="normal"
    units-per-em="1000"
    panose-1="2 0 6 3 0 0 0 0 0 0"
    ascent="800"
    descent="-200"
    x-height="762.823"
    cap-height="1022.96"
    bbox="23.9967 -368.395 960.519 1157.33"
    underline-thickness="50"
    underline-position="-100"
    stemh="64"
    stemv="63"
    unicode-range="U+0020-U+00F1"
  />
<missing-glyph horiz-adv-x="500" 
d="M50 0v533h400v-533h-400zM100 50h300v433h-300v-433z" />
    <glyph glyph-name=".notdef" horiz-adv-x="500" 
d="M50 0v533h400v-533h-400zM100 50h300v433h-300v-433z" />
    <glyph glyph-name="space" unicode=" " horiz-adv-x="320" 
 />
    <glyph glyph-name="comma" unicode="," horiz-adv-x="112" 
d="M55.5264 180.555c8.53223 0.128906 17.0625 -3.32715 23.0977 -9.3584s9.5 -14.5596 9.37891 -23.0908v-115.652c0.117188 -8.44922 -3.27637 -16.8994 -9.21094 -22.918c-5.9375 -6.02441 -14.3359 -9.53516 -22.7891 -9.53516s-16.8555 3.51074 -22.7891 9.53516
c-5.9375 6.01855 -9.33203 14.4688 -9.21094 22.918v115.652c-0.117188 8.375 3.21094 16.7422 9.04297 22.75c5.83594 6.00781 14.1094 9.57422 22.4805 9.69922zM55.5264 180.556z" />
    <glyph glyph-name="period" unicode="." horiz-adv-x="112" 
d="M55.5264 100.555c8.53223 0.128906 17.0625 -3.32812 23.0977 -9.3584c6.03516 -6.03125 9.5 -14.5596 9.37891 -23.0898v-35.6523c0.117188 -8.44922 -3.27637 -16.8994 -9.21094 -22.918c-5.9375 -6.02441 -14.3359 -9.53516 -22.7891 -9.53516
s-16.8555 3.51074 -22.7891 9.53516c-5.9375 6.01855 -9.33203 14.4688 -9.21094 22.918v35.6523c-0.117188 8.375 3.21094 16.7412 9.04297 22.75c5.83594 6.00781 14.1094 9.57324 22.4805 9.69824zM55.5264 100.555z" />
    <glyph glyph-name="zero" unicode="0" horiz-adv-x="514" 
d="M257.125 1097.7c25.3828 0 48.3594 -7.26953 66 -17.0996s31.7539 -22.3701 44.7266 -37.2998c25.9453 -29.8701 47.1172 -69.8418 65.0234 -118.577c35.8125 -97.4639 57.375 -229.714 57.375 -375.875c0 -146.156 -21.5625 -278.406 -57.376 -375.875
c-17.9062 -48.7305 -39.0781 -88.708 -65.0234 -118.574c-12.9727 -14.9336 -27.0859 -27.4727 -44.7266 -37.3018c-17.6406 -9.82324 -40.6162 -17.0967 -65.999 -17.0967s-48.3828 7.27344 -66.0225 17.0967c-17.6406 9.8291 -31.7539 22.3682 -44.7266 37.3018
c-25.9453 29.8662 -47.0938 69.8438 -65 118.574c-35.8135 97.4688 -57.375 229.719 -57.375 375.875c0 146.161 21.5615 278.411 57.375 375.875c17.9062 48.7354 39.0547 88.707 65 118.577c12.9727 14.9297 27.0859 27.4697 44.7266 37.2998
c17.6396 9.83008 40.6396 17.0996 66.0225 17.0996zM257.126 1047.4c-1.18359 0 -4.14062 -0.0703125 -11.5508 -4.2002s-17.4766 -12.1602 -27.5234 -23.7305c-20.0977 -23.1289 -40.4092 -59.8604 -57.3232 -105.896
c-33.832 -92.0742 -55.3291 -221.656 -55.3291 -364.728c0 -143.066 21.4971 -272.648 55.3291 -364.723c16.9141 -46.0391 37.2256 -82.7656 57.3232 -105.903c10.0469 -11.5654 20.1133 -19.5967 27.5234 -23.7217c7.41016 -4.12891 10.3672 -4.19922 11.5508 -4.19922
s4.1123 0.0703125 11.5225 4.19922c7.41406 4.125 17.4541 12.1562 27.5 23.7217c20.0977 23.1377 40.4102 59.8643 57.3281 105.903c33.8281 92.0742 55.375 221.656 55.375 364.723c0 143.071 -21.5469 272.653 -55.375 364.728
c-16.918 46.0352 -37.2305 82.7666 -57.3281 105.896c-10.0459 11.5703 -20.0859 19.6006 -27.5 23.7305c-7.41016 4.12988 -10.3389 4.2002 -11.5225 4.2002zM257.126 1047.4z" />
    <glyph glyph-name="one" unicode="1" horiz-adv-x="113" 
d="M56.5264 1110.77c8.53906 0.129883 17.0713 -3.33887 23.1064 -9.36914c6.03906 -6.04004 9.49609 -14.5703 9.37109 -23.1104l-1 -1045.87c0.108398 -8.45312 -3.29688 -16.8994 -9.23828 -22.9102c-5.94238 -6.01562 -14.3477 -9.51953 -22.8008 -9.50781
c-8.45312 0.0078125 -16.8486 3.53125 -22.7773 9.55762c-5.92578 6.02832 -9.3125 14.4814 -9.18359 22.9346l1 1045.85c-0.113281 8.37012 3.21875 16.7305 9.05469 22.7305c5.83594 6.00977 14.1006 9.56934 22.4678 9.69922zM56.5264 1110.77z" />
    <glyph glyph-name="two" unicode="2" horiz-adv-x="566" 
d="M284.023 1118.25c1.86035 0.00976562 3.71582 0.0078125 5.57617 -0.0322266c64.3896 -1.13965 127.589 -27.5791 172.824 -74.4688c45.8555 -47.5381 69.4141 -110.714 76.0742 -173.327c10.0625 -94.5859 -17.5615 -191.594 -75.9258 -266.699